elements=(
    {   name="e"      ;   mass=(9.11e-28,"g");     charge=(-1.0,"e");  ionization_potential=0.0;},
    {   name="H"      ;   mass=(1.008 ,"amu");     charge=( 0.0,"e");  ionization_potential=0.0;},
    {   name="H2"     ;   mass=(2.016 ,"amu");     charge=( 0.0,"e");  ionization_potential=0.0;},
    {   name="Sn"     ;   mass=(118.71,"amu");     charge=( 0.0,"e");  ionization_potential=0.0;},
    {   name="Sn+"    ;   mass=(118.71,"amu");     charge=( 1.0,"e");  ionization_potential=3.575;},
    {   name="Sn+2"   ;   mass=(118.71,"amu");     charge=( 2.0,"e");  ionization_potential=14.45;},
    {   name="Sn+3"   ;   mass=(118.71,"amu");     charge=( 3.0,"e");  ionization_potential=37.0;},
    {   name="Sn+4"   ;   mass=(118.71,"amu");     charge=( 4.0,"e");  ionization_potential=72.62;},
    {   name="Sn+5"   ;   mass=(118.71,"amu");     charge=( 5.0,"e");  ionization_potential=131.24;},
    {   name="Sn+6"   ;   mass=(118.71,"amu");     charge=( 6.0,"e");  ionization_potential=217.5;},
    {   name="Sn+7"   ;   mass=(118.71,"amu");     charge=( 7.0,"e");  ionization_potential=323.5;},
    {   name="Sn+8"   ;   mass=(118.71,"amu");     charge=( 8.0,"e");  ionization_potential=450.5;},
    {   name="Sn+9"   ;   mass=(118.71,"amu");     charge=( 9.0,"e");  ionization_potential=600.5;},
    {   name="Sn+10"  ;   mass=(118.71,"amu");     charge=(10.0,"e");  ionization_potential=771.0;},
    {   name="Sn+11"  ;   mass=(118.71,"amu");     charge=(11.0,"e");  ionization_potential=965.0;},
    {   name="Sn+12"  ;   mass=(118.71,"amu");     charge=(12.0,"e");  ionization_potential=1184.0;},
    {   name="Sn+13"  ;   mass=(118.71,"amu");     charge=(13.0,"e");  ionization_potential=1428.0;},
    {   name="Sn+14"  ;   mass=(118.71,"amu");     charge=(14.0,"e");  ionization_potential=1699.0;},
    {   name="Sn+15"  ;   mass=(118.71,"amu");     charge=(15.0,"e");  ionization_potential=2033.0;},
    {   name="Sn+16"  ;   mass=(118.71,"amu");     charge=(16.0,"e");  ionization_potential=2430.5;},    
    
    {   name="Sn+17"  ;   mass=(118.71,"amu");     charge=(17.0,"e");  ionization_potential=2856.5;}, 
    {   name="Sn+18"  ;   mass=(118.71,"amu");     charge=(18.0,"e");  ionization_potential=3311.5;},
    {   name="Sn+19"  ;   mass=(118.71,"amu");     charge=(19.0,"e");  ionization_potential=3796.5;},
    {   name="Sn+20"  ;   mass=(118.71,"amu");     charge=(20.0,"e");  ionization_potential=4311.0;},
    {   name="Sn+21"  ;   mass=(118.71,"amu");     charge=(21.0,"e");  ionization_potential=4881.8;},
    {   name="Sn+22"  ;   mass=(118.71,"amu");     charge=(22.0,"e");  ionization_potential=5507.0;},
    {   name="Sn+23"  ;   mass=(118.71,"amu");     charge=(22.0,"e");  ionization_potential=6164.0;},
    {   name="H2+"    ;   mass=(2.008 ,"amu");     charge=( 1.0,"e");  ionization_potential=0.0;},
    {   name="H+"     ;   mass=(1.008 ,"amu");     charge=( 1.0,"e");  ionization_potential=0.0;}

);

reactions=(
{   comment="recharge";
    in =("Sn+2","H2");
    out=("Sn+" ,"H2");
    handler = "RECHARGE";
    units=("eV","cm2");
    energy=6.35;
    cross_section=(
        (10.0   ,1.0E-14 ),
        (10000.0,1.0E-14 )
    );
},
{   comment="recharge";
    in =("Sn+3","H2");
    out=("Sn+2" ,"H2");
    handler = "RECHARGE";
    units=("eV","cm2");
    energy=36.85;
    cross_section=(
        (10.0   ,1.0E-14 ),
        (10000.0,1.0E-14 )
    );
},
{   comment="recharge";
    in =("Sn+4","H2");
    out=("Sn+3" ,"H2");
    handler = "RECHARGE";
    units=("eV","cm2");
    energy=77.59;
    cross_section=(
        (10.0   ,1.0E-14 ),
        (10000.0,1.0E-14 )
    );
},
{   comment="recharge";
    in =("Sn+5","H2");
    out=("Sn+4" ,"H2");
    handler = "RECHARGE";
    units=("eV","cm2");
    energy=154.09;
    cross_section=(
        (10.0   ,1.0E-14 ),
        (10000.0,1.0E-14 )
    );
},
{   comment="recharge";
    in =("Sn+6","H2");
    out=("Sn+5" ,"H2");
    handler = "RECHARGE";
    units=("eV","cm2");
    energy=250.09;
    cross_section=(
        (10.0   ,1.0E-14 ),
        (10000.0,1.0E-14 )
    );
},
{   comment="recharge";
    in =("Sn+7","H2");
    out=("Sn+6" ,"H2");
    handler = "RECHARGE";
    units=("eV","cm2");
    energy=366.09;
    dE=0.5;
    cross_section=(
        (10.0   ,1.0E-14 ),
        (10000.0,1.0E-14 )
    );
},
{   comment="recharge";
    in =("Sn+8","H2");
    out=("Sn+7" ,"H2");
    handler = "RECHARGE";
    units=("eV","cm2");
    energy=504.09;
    dE=0.5;
    cross_section=(
        (10.0   ,1.0E-14 ),
        (10000.0,1.0E-14 )
    );
},
{   comment="recharge";
    in =("Sn+9","H2");
    out=("Sn+8" ,"H2");
    handler = "RECHARGE";
    units=("eV","cm2");
    energy=664.09;
    dE=0.5;
    cross_section=(
        (10.0   ,1.0E-14 ),
        (10000.0,1.0E-14 )
    );
},
{   comment="recharge";
    in =("Sn+10","H2");
    out=("Sn+9" ,"H2");
    handler = "RECHARGE";
    units=("eV","cm2");
    energy=847.09;
    dE=0.5;
    cross_section=(
        (10.0   ,1.0E-14 ),
        (10000.0,1.0E-14 )
    );
}
);
energy_loss=(
{   #source srim 
    in = "Sn";
    background = "H2";
    atom_multiplier = 2.0;
    units = ("eV","cm^2 * eV");
    energy_loss = (
        (0.0,    0.144E-15),
        (1.1,    0.144E-15),
        (1.2,    0.151E-15),
        (1.3,    0.159E-15),
        (1.4,    0.168E-15),
        (1.5,    0.176E-15),
        (1.6,    0.183E-15),
        (1.7,    0.191E-15),
        (1.8,    0.198E-15),
        (2.0,    0.213E-15),
        (2.25,   0.230E-15),
        (2.49999,0.247E-15),
        (2.74999,0.263E-15),
        (2.99999,0.279E-15),
        (3.24999,0.294E-15),
        (3.49999,0.309E-15),
        (3.74999,0.324E-15),
        (3.99999,0.338E-15),
        (4.49999,0.365E-15),
        (4.99999,0.391E-15),
        (5.49999,0.417E-15),
        (5.99999,0.441E-15),
        (6.49999,0.465E-15),
        (6.99999,0.488E-15),
        (7.99999,0.533E-15),
        (8.99999,0.575E-15),
        (9.99999,6.16E-16),
        (10.9999,6.56E-16),
        (11.9999,6.94E-16),
        (12.9999,7.3E-16 ),
        (13.9999,7.66E-16),
        (14.9999,8.01E-16),
        (15.9999,8.34E-16),
        (16.9999,8.67E-16),
        (17.9999,9.0E-16),
        (19.9999,9.62E-16),
        (22.4999,1.04E-15),
        (24.9999,1.11E-15),
        (27.4999,1.18E-15),
        (29.9999,1.24E-15),
        (32.4999,1.31E-15),
        (34.9999,1.37E-15),
        (37.4999,1.43E-15),
        (39.9999,1.49E-15),
        (44.9999,1.6E-15),
        (49.9999,1.71E-15),
        (54.9999,1.81E-15),
        (59.9999,1.91E-15),
        (64.9999,2.01E-15),
        (69.9999,2.1E-15),
        (79.9999,2.28E-15),
        (89.9999,2.44E-15),
        (99.9999,2.6E-15),
        (   110.0,2.75E-15),
        (   120.0,2.9E-15),
        (   130.0,3.04E-15),
        (139.999,3.18E-15),
        (149.999,3.31E-15),
        (159.999,3.44E-15),
        (169.999,3.56E-15),
        (179.999,3.68E-15),
        (199.999,3.91E-15),
        (224.999,4.18E-15),
        (249.999,4.44E-15),
        (274.999,4.69E-15),
        (299.999,4.93E-15),
        (324.999,5.16E-15),
        (349.999,5.37E-15),
        (374.999,5.58E-15),
        (399.999,5.79E-15),
        (449.999,6.17E-15),
        (499.999,6.54E-15),
        (549.999,6.88E-15),
        (599.999,7.21E-15),
        (649.999,7.53E-15),
        (699.999,7.83E-15),
        (799.999,8.4E-15),
        (899.999,8.93E-15),
        (999.999,9.43E-15),
        (   1.10E3,9.9E-15),
        (   1.20E3,1.03E-14),
        (   1.30E3,1.08E-14),
        (   1.40E3,1.12E-14),
        (   1.50E3,1.16E-14),
        (   1.60E3,1.19E-14),
        (   1.70E3,1.23E-14),
        (   1.80E3,1.26E-14),
        (   2.00E3,1.33E-14),
        (   2.25E3,1.4E-14),
        (   2.50E3,1.47E-14),
        (   2.75E3,1.54E-14),
        (   3.00E3,1.6E-14),
        (   3.25E3,1.66E-14),
        (   3.50E3,1.72E-14),
        (   3.75E3,1.77E-14),
        (   4.00E3,1.82E-14),
        (   4.50E3,1.91E-14),
        (   5.00E3,2.0E-14),
        (   5.50E3,2.08E-14),
        (   6.00E3,2.16E-14),
        (   6.50E3,2.23E-14),
        (   7.00E3,2.3E-14),
        (   8.00E3,2.42E-14),
        (   9.00E3,2.53E-14),
        (  10.00E3,2.63E-14),
        (  11.00E3,2.73E-14),
        (  12.00E3,2.81E-14),
        (  13.00E3,2.89E-14),
        (  14.00E3,2.97E-14),
        (  15.00E3,3.04E-14),
        (  16.00E3,3.11E-14),
        (  17.00E3,3.17E-14),
        (  18.00E3,3.23E-14),
        (  20.00E3,3.34E-14),
        (  22500.0,3.46E-14),
        (  25000.0,3.58E-14),
        (  27500.0,3.68E-14),
        (  30000.0,3.77E-14),
        (  32500.0,3.86E-14),
        (  35000.0,3.93E-14),
        (  37500.0,4.01E-14),
        (  40000.0,4.08E-14),
        (  45000.0,4.2E-14 ),
        (  50000.0,4.31E-14)
    );
},
{
    in = "Sn+";
    background = "H2";
    atom_multiplier = 2.0;
    units = ("eV","cm^2 * eV");
    energy_loss = (
        (0.0,    0.144E-15),
        (1.1,    0.144E-15),
        (1.2,    0.151E-15),
        (1.3,    0.159E-15),
        (1.4,    0.168E-15),
        (1.5,    0.176E-15),
        (1.6,    0.183E-15),
        (1.7,    0.191E-15),
        (1.8,    0.198E-15),
        (2.0,    0.213E-15),
        (2.25,   0.230E-15),
        (2.49999,0.247E-15),
        (2.74999,0.263E-15),
        (2.99999,0.279E-15),
        (3.24999,0.294E-15),
        (3.49999,0.309E-15),
        (3.74999,0.324E-15),
        (3.99999,0.338E-15),
        (4.49999,0.365E-15),
        (4.99999,0.391E-15),
        (5.49999,0.417E-15),
        (5.99999,0.441E-15),
        (6.49999,0.465E-15),
        (6.99999,0.488E-15),
        (7.99999,0.533E-15),
        (8.99999,0.575E-15),
        (9.99999,6.16E-16),
        (10.9999,6.56E-16),
        (11.9999,6.94E-16),
        (12.9999,7.3E-16 ),
        (13.9999,7.66E-16),
        (14.9999,8.01E-16),
        (15.9999,8.34E-16),
        (16.9999,8.67E-16),
        (17.9999,9.0E-16),
        (19.9999,9.62E-16),
        (22.4999,1.04E-15),
        (24.9999,1.11E-15),
        (27.4999,1.18E-15),
        (29.9999,1.24E-15),
        (32.4999,1.31E-15),
        (34.9999,1.37E-15),
        (37.4999,1.43E-15),
        (39.9999,1.49E-15),
        (44.9999,1.6E-15),
        (49.9999,1.71E-15),
        (54.9999,1.81E-15),
        (59.9999,1.91E-15),
        (64.9999,2.01E-15),
        (69.9999,2.1E-15),
        (79.9999,2.28E-15),
        (89.9999,2.44E-15),
        (99.9999,2.6E-15),
        (  110.0,2.75E-15),
        (  120.0,2.9E-15),
        (  130.0,3.04E-15),
        (139.999,3.18E-15),
        (149.999,3.31E-15),
        (159.999,3.44E-15),
        (169.999,3.56E-15),
        (179.999,3.68E-15),
        (199.999,3.91E-15),
        (224.999,4.18E-15),
        (249.999,4.44E-15),
        (274.999,4.69E-15),
        (299.999,4.93E-15),
        (324.999,5.16E-15),
        (349.999,5.37E-15),
        (374.999,5.58E-15),
        (399.999,5.79E-15),
        (449.999,6.17E-15),
        (499.999,6.54E-15),
        (549.999,6.88E-15),
        (599.999,7.21E-15),
        (649.999,7.53E-15),
        (699.999,7.83E-15),
        (799.999,8.4E-15),
        (899.999,8.93E-15),
        (999.999,9.43E-15),
        (  1.10E3,9.9E-15),
        (  1.20E3,1.03E-14),
        (  1.30E3,1.08E-14),
        (  1.40E3,1.12E-14),
        (  1.50E3,1.16E-14),
        (  1.60E3,1.19E-14),
        (  1.70E3,1.23E-14),
        (  1.80E3,1.26E-14),
        (  2.00E3,1.33E-14),
        (  2.25E3,1.4E-14),
        (  2.50E3,1.47E-14),
        (  2.75E3,1.54E-14),
        (  3.00E3,1.6E-14),
        (  3.25E3,1.66E-14),
        (  3.50E3,1.72E-14),
        (  3.75E3,1.77E-14),
        (  4.00E3,1.82E-14),
        (  4.50E3,1.91E-14),
        (  5.00E3,2.0E-14),
        (  5.50E3,2.08E-14),
        (  6.00E3,2.16E-14),
        (  6.50E3,2.23E-14),
        (  7.00E3,2.3E-14),
        (  8.00E3,2.42E-14),
        (  9.00E3,2.53E-14),
        ( 10.00E3,2.63E-14),
        ( 11.00E3,2.73E-14),
        ( 12.00E3,2.81E-14),
        ( 13.00E3,2.89E-14),
        ( 14.00E3,2.97E-14),
        ( 15.00E3,3.04E-14),
        ( 16.00E3,3.11E-14),
        ( 17.00E3,3.17E-14),
        ( 18.00E3,3.23E-14),
        ( 20.00E3,3.34E-14),
        (  22500.0,3.46E-14),
        (  25000.0,3.58E-14),
        (  27500.0,3.68E-14),
        (  30000.0,3.77E-14),
        (  32500.0,3.86E-14),
        (  35000.0,3.93E-14),
        (  37500.0,4.01E-14),
        (  40000.0,4.08E-14),
        (  45000.0,4.2E-14 ),
        (  50000.0,4.31E-14)
    );
},
{   #source srim 
    in = "Sn";
    background = "H";
    atom_multiplier = 1.0;
    units = ("eV","cm^2 * eV");
    energy_loss = (
        (0.0,    0.144E-15),
        (1.1,    0.144E-15),
        (1.2,    0.151E-15),
        (1.3,    0.159E-15),
        (1.4,    0.168E-15),
        (1.5,    0.176E-15),
        (1.6,    0.183E-15),
        (1.7,    0.191E-15),
        (1.8,    0.198E-15),
        (2.0,    0.213E-15),
        (2.25,   0.230E-15),
        (2.49999,0.247E-15),
        (2.74999,0.263E-15),
        (2.99999,0.279E-15),
        (3.24999,0.294E-15),
        (3.49999,0.309E-15),
        (3.74999,0.324E-15),
        (3.99999,0.338E-15),
        (4.49999,0.365E-15),
        (4.99999,0.391E-15),
        (5.49999,0.417E-15),
        (5.99999,0.441E-15),
        (6.49999,0.465E-15),
        (6.99999,0.488E-15),
        (7.99999,0.533E-15),
        (8.99999,0.575E-15),
        (9.99999,6.16E-16),
        (10.9999,6.56E-16),
        (11.9999,6.94E-16),
        (12.9999,7.3E-16 ),
        (13.9999,7.66E-16),
        (14.9999,8.01E-16),
        (15.9999,8.34E-16),
        (16.9999,8.67E-16),
        (17.9999,9.0E-16),
        (19.9999,9.62E-16),
        (22.4999,1.04E-15),
        (24.9999,1.11E-15),
        (27.4999,1.18E-15),
        (29.9999,1.24E-15),
        (32.4999,1.31E-15),
        (34.9999,1.37E-15),
        (37.4999,1.43E-15),
        (39.9999,1.49E-15),
        (44.9999,1.6E-15),
        (49.9999,1.71E-15),
        (54.9999,1.81E-15),
        (59.9999,1.91E-15),
        (64.9999,2.01E-15),
        (69.9999,2.1E-15),
        (79.9999,2.28E-15),
        (89.9999,2.44E-15),
        (99.9999,2.6E-15),
        (   110.0,2.75E-15),
        (   120.0,2.9E-15),
        (   130.0,3.04E-15),
        (139.999,3.18E-15),
        (149.999,3.31E-15),
        (159.999,3.44E-15),
        (169.999,3.56E-15),
        (179.999,3.68E-15),
        (199.999,3.91E-15),
        (224.999,4.18E-15),
        (249.999,4.44E-15),
        (274.999,4.69E-15),
        (299.999,4.93E-15),
        (324.999,5.16E-15),
        (349.999,5.37E-15),
        (374.999,5.58E-15),
        (399.999,5.79E-15),
        (449.999,6.17E-15),
        (499.999,6.54E-15),
        (549.999,6.88E-15),
        (599.999,7.21E-15),
        (649.999,7.53E-15),
        (699.999,7.83E-15),
        (799.999,8.4E-15),
        (899.999,8.93E-15),
        (999.999,9.43E-15),
        (   1.10E3,9.9E-15),
        (   1.20E3,1.03E-14),
        (   1.30E3,1.08E-14),
        (   1.40E3,1.12E-14),
        (   1.50E3,1.16E-14),
        (   1.60E3,1.19E-14),
        (   1.70E3,1.23E-14),
        (   1.80E3,1.26E-14),
        (   2.00E3,1.33E-14),
        (   2.25E3,1.4E-14),
        (   2.50E3,1.47E-14),
        (   2.75E3,1.54E-14),
        (   3.00E3,1.6E-14),
        (   3.25E3,1.66E-14),
        (   3.50E3,1.72E-14),
        (   3.75E3,1.77E-14),
        (   4.00E3,1.82E-14),
        (   4.50E3,1.91E-14),
        (   5.00E3,2.0E-14),
        (   5.50E3,2.08E-14),
        (   6.00E3,2.16E-14),
        (   6.50E3,2.23E-14),
        (   7.00E3,2.3E-14),
        (   8.00E3,2.42E-14),
        (   9.00E3,2.53E-14),
        (  10.00E3,2.63E-14),
        (  11.00E3,2.73E-14),
        (  12.00E3,2.81E-14),
        (  13.00E3,2.89E-14),
        (  14.00E3,2.97E-14),
        (  15.00E3,3.04E-14),
        (  16.00E3,3.11E-14),
        (  17.00E3,3.17E-14),
        (  18.00E3,3.23E-14),
        (  20.00E3,3.34E-14),
        (  22500.0,3.46E-14),
        (  25000.0,3.58E-14),
        (  27500.0,3.68E-14),
        (  30000.0,3.77E-14),
        (  32500.0,3.86E-14),
        (  35000.0,3.93E-14),
        (  37500.0,4.01E-14),
        (  40000.0,4.08E-14),
        (  45000.0,4.2E-14 ),
        (  50000.0,4.31E-14)
    );
},
{
    in = "Sn+";
    background = "H";
    atom_multiplier = 1.0;
    units = ("eV","cm^2 * eV");
    energy_loss = (
        (0.0,    0.144E-15),
        (1.1,    0.144E-15),
        (1.2,    0.151E-15),
        (1.3,    0.159E-15),
        (1.4,    0.168E-15),
        (1.5,    0.176E-15),
        (1.6,    0.183E-15),
        (1.7,    0.191E-15),
        (1.8,    0.198E-15),
        (2.0,    0.213E-15),
        (2.25,   0.230E-15),
        (2.49999,0.247E-15),
        (2.74999,0.263E-15),
        (2.99999,0.279E-15),
        (3.24999,0.294E-15),
        (3.49999,0.309E-15),
        (3.74999,0.324E-15),
        (3.99999,0.338E-15),
        (4.49999,0.365E-15),
        (4.99999,0.391E-15),
        (5.49999,0.417E-15),
        (5.99999,0.441E-15),
        (6.49999,0.465E-15),
        (6.99999,0.488E-15),
        (7.99999,0.533E-15),
        (8.99999,0.575E-15),
        (9.99999,6.16E-16),
        (10.9999,6.56E-16),
        (11.9999,6.94E-16),
        (12.9999,7.3E-16 ),
        (13.9999,7.66E-16),
        (14.9999,8.01E-16),
        (15.9999,8.34E-16),
        (16.9999,8.67E-16),
        (17.9999,9.0E-16),
        (19.9999,9.62E-16),
        (22.4999,1.04E-15),
        (24.9999,1.11E-15),
        (27.4999,1.18E-15),
        (29.9999,1.24E-15),
        (32.4999,1.31E-15),
        (34.9999,1.37E-15),
        (37.4999,1.43E-15),
        (39.9999,1.49E-15),
        (44.9999,1.6E-15),
        (49.9999,1.71E-15),
        (54.9999,1.81E-15),
        (59.9999,1.91E-15),
        (64.9999,2.01E-15),
        (69.9999,2.1E-15),
        (79.9999,2.28E-15),
        (89.9999,2.44E-15),
        (99.9999,2.6E-15),
        (  110.0,2.75E-15),
        (  120.0,2.9E-15),
        (  130.0,3.04E-15),
        (139.999,3.18E-15),
        (149.999,3.31E-15),
        (159.999,3.44E-15),
        (169.999,3.56E-15),
        (179.999,3.68E-15),
        (199.999,3.91E-15),
        (224.999,4.18E-15),
        (249.999,4.44E-15),
        (274.999,4.69E-15),
        (299.999,4.93E-15),
        (324.999,5.16E-15),
        (349.999,5.37E-15),
        (374.999,5.58E-15),
        (399.999,5.79E-15),
        (449.999,6.17E-15),
        (499.999,6.54E-15),
        (549.999,6.88E-15),
        (599.999,7.21E-15),
        (649.999,7.53E-15),
        (699.999,7.83E-15),
        (799.999,8.4E-15),
        (899.999,8.93E-15),
        (999.999,9.43E-15),
        (  1.10E3,9.9E-15),
        (  1.20E3,1.03E-14),
        (  1.30E3,1.08E-14),
        (  1.40E3,1.12E-14),
        (  1.50E3,1.16E-14),
        (  1.60E3,1.19E-14),
        (  1.70E3,1.23E-14),
        (  1.80E3,1.26E-14),
        (  2.00E3,1.33E-14),
        (  2.25E3,1.4E-14),
        (  2.50E3,1.47E-14),
        (  2.75E3,1.54E-14),
        (  3.00E3,1.6E-14),
        (  3.25E3,1.66E-14),
        (  3.50E3,1.72E-14),
        (  3.75E3,1.77E-14),
        (  4.00E3,1.82E-14),
        (  4.50E3,1.91E-14),
        (  5.00E3,2.0E-14),
        (  5.50E3,2.08E-14),
        (  6.00E3,2.16E-14),
        (  6.50E3,2.23E-14),
        (  7.00E3,2.3E-14),
        (  8.00E3,2.42E-14),
        (  9.00E3,2.53E-14),
        ( 10.00E3,2.63E-14),
        ( 11.00E3,2.73E-14),
        ( 12.00E3,2.81E-14),
        ( 13.00E3,2.89E-14),
        ( 14.00E3,2.97E-14),
        ( 15.00E3,3.04E-14),
        ( 16.00E3,3.11E-14),
        ( 17.00E3,3.17E-14),
        ( 18.00E3,3.23E-14),
        ( 20.00E3,3.34E-14),
        (  22500.0,3.46E-14),
        (  25000.0,3.58E-14),
        (  27500.0,3.68E-14),
        (  30000.0,3.77E-14),
        (  32500.0,3.86E-14),
        (  35000.0,3.93E-14),
        (  37500.0,4.01E-14),
        (  40000.0,4.08E-14),
        (  45000.0,4.2E-14 ),
        (  50000.0,4.31E-14)
    );
},    
{
    in = "Sn+";
    background = "Sn";
    units = ("eV","cm^2 * eV");
    energy_loss = (
        (0.0,    2.0145E-15),
        (1.1,    2.0145E-15),
        (1.2,    2.1295E-15),
        (1.3,    2.2508E-15),
        (1.4,    2.3697E-15),
        (1.5,    2.4863E-15),
        (1.6,    2.5996E-15),
        (1.7,    2.7106E-15),
        (1.8,    2.8195E-15),
        (2.0,    3.0315E-15),
        (2.3,    3.2882E-15),
        (2.5,    3.534E-15),
        (2.7,    3.7729E-15),
        (3.0,    4.0042E-15),
        (3.2,    4.2298E-15),
        (3.5,    4.4489E-15),
        (3.7,    4.6625E-15),
        (4.0,    4.8716E-15),
        (4.5,    5.2767E-15),
        (5.0,    5.6674E-15),
        (5.5,    6.044E-15),
        (6.0,    6.4086E-15),
        (6.5,    6.7632E-15),
        (7.0,    7.1081E-15),
        (8.0,    7.7719E-15),
        (9.0,    8.4074E-15),
        (10.0,   9.018E-15),
        (11.0,   9.6069E-15),
        (12.0,   10.1754E-15),
        (13.0,   10.7276E-15),
        (14.0,   11.2638E-15),
        (15.0,   11.7909E-15),
        (16.0,   12.2972E-15),
        (17.0,   12.7927E-15),
        (18.0,   13.2774E-15),
        (20.0,   14.2248E-15),
        (22.5,   15.3509E-15),
        (25.0,   16.434E-15),
        (27.5,   17.474E-15),
        (30.0,   18.483E-15),
        (32.5,   19.449E-15),
        (35.0,   20.393E-15),
        (37.5,   21.306E-15),
        (40.0,   22.198E-15),
        (45.0,   23.917E-15),
        (50.0,   25.562E-15),
        (55.0,   27.134E-15),
        (60.0,   28.652E-15),
        (65.0,   30.117E-15),
        (70.0,   31.53E-15),
        (80.0,   34.25E-15),
        (90.0,   36.812E-15),
        (100.0,  39.268E-15),
        (110.0,  41.609E-15),
        (120.0,  43.855E-15),
        (130.0,  46.028E-15),
        (140.0,  48.117E-15),
        (150.0,  50.143E-15),
        (160.0,  52.116E-15),
        (170.0,  54.026E-15),
        (180.0,  55.885E-15),
        (200.0,  59.465E-15),
        (225.0,  63.712E-15),
        (250.0,  67.74E-15),
        (275.0,  71.569E-15),
        (300.0,  75.242E-15),
        (325.0,  78.768E-15),
        (350.0,  82.159E-15),
        (375.0,  85.425E-15),
        (400.0,  88.586E-15),
        (450.0,  94.627E-15),
        (500.0,  100.324E-15),
        (550.0,  105.75E-15),
        (600.0,  110.866E-15),
        (650.0,  115.772E-15),
        (700.0,  120.571E-15),
        (800.0,  129.449E-15),
        (900.0,  137.804E-15),
        (1000.0, 145.64E-15),
        (1100.0, 153.059E-15),
        (1200.0, 160.064E-15),
        (1300.0, 166.656E-15),
        (1400.0, 173.038E-15),
        (1500.0, 179.209E-15),
        (1600.0, 185.072E-15),
        (1700.0, 190.727E-15),
        (1800.0, 196.174E-15),
        (2000.0, 206.448E-15),
        (2250.0, 218.509E-15),
        (2500.0, 229.74E-15),
        (2750.0, 240.24E-15),
        (3000.0, 250.13E-15),
        (3250.0, 259.39E-15),
        (3500.0, 268.23E-15),
        (3750.0, 276.66E-15),
        (4000.0, 284.78E-15),
        (4500.0, 299.77E-15),
        (5000.0, 313.72E-15),
        (5500.0, 326.64E-15),
        (6000.0, 338.72E-15),
        (6500.0, 349.97E-15),
        (7000.0, 360.7E-15),
        (8000.0, 380.3E-15),
        (9000.0, 398.12E-15),
        (10000.0,414.38E-15),
        (11000.0,429.29E-15),
        (12000.0,443.15E-15),
        (13000.0,455.98E-15),
        (14000.0,467.97E-15),
        (15000.0,479.33E-15),
        (16000.0,489.96E-15),
        (17000.0,499.96E-15),
        (18000.0,509.54E-15),
        (20000.0,527.15E-15),
        (2.25E+04, 5.47E-13),
        (2.5E+04,  5.65E-13),
        (2.75E+04, 5.81E-13),
        (3.0E+04,  5.96E-13),
        (3.25E+04, 6.09E-13),
        (3.5E+04,  6.21E-13),
        (3.75E+04, 6.33E-13),
        (4.0E+04,  6.43E-13),
        (4.5E+04,  6.63E-13),
        (5.0E+04,  6.8E-13 )
    );
},    
{
    in = "Sn";
    background = "Sn";
    units = ("eV","cm^2 * eV");
    energy_loss = (
        (0.0,    2.0145E-15),
        (1.1,    2.0145E-15),
        (1.2,    2.1295E-15),
        (1.3,    2.2508E-15),
        (1.4,    2.3697E-15),
        (1.5,    2.4863E-15),
        (1.6,    2.5996E-15),
        (1.7,    2.7106E-15),
        (1.8,    2.8195E-15),
        (2.0,    3.0315E-15),
        (2.3,    3.2882E-15),
        (2.5,    3.534E-15),
        (2.7,    3.7729E-15),
        (3.0,    4.0042E-15),
        (3.2,    4.2298E-15),
        (3.5,    4.4489E-15),
        (3.7,    4.6625E-15),
        (4.0,    4.8716E-15),
        (4.5,    5.2767E-15),
        (5.0,    5.6674E-15),
        (5.5,    6.044E-15),
        (6.0,    6.4086E-15),
        (6.5,    6.7632E-15),
        (7.0,    7.1081E-15),
        (8.0,    7.7719E-15),
        (9.0,    8.4074E-15),
        (10.0,   9.018E-15),
        (11.0,   9.6069E-15),
        (12.0,   10.1754E-15),
        (13.0,   10.7276E-15),
        (14.0,   11.2638E-15),
        (15.0,   11.7909E-15),
        (16.0,   12.2972E-15),
        (17.0,   12.7927E-15),
        (18.0,   13.2774E-15),
        (20.0,   14.2248E-15),
        (22.5,   15.3509E-15),
        (25.0,   16.434E-15),
        (27.5,   17.474E-15),
        (30.0,   18.483E-15),
        (32.5,   19.449E-15),
        (35.0,   20.393E-15),
        (37.5,   21.306E-15),
        (40.0,   22.198E-15),
        (45.0,   23.917E-15),
        (50.0,   25.562E-15),
        (55.0,   27.134E-15),
        (60.0,   28.652E-15),
        (65.0,   30.117E-15),
        (70.0,   31.53E-15),
        (80.0,   34.25E-15),
        (90.0,   36.812E-15),
        (100.0,  39.268E-15),
        (110.0,  41.609E-15),
        (120.0,  43.855E-15),
        (130.0,  46.028E-15),
        (140.0,  48.117E-15),
        (150.0,  50.143E-15),
        (160.0,  52.116E-15),
        (170.0,  54.026E-15),
        (180.0,  55.885E-15),
        (200.0,  59.465E-15),
        (225.0,  63.712E-15),
        (250.0,  67.74E-15),
        (275.0,  71.569E-15),
        (300.0,  75.242E-15),
        (325.0,  78.768E-15),
        (350.0,  82.159E-15),
        (375.0,  85.425E-15),
        (400.0,  88.586E-15),
        (450.0,  94.627E-15),
        (500.0,  100.324E-15),
        (550.0,  105.75E-15),
        (600.0,  110.866E-15),
        (650.0,  115.772E-15),
        (700.0,  120.571E-15),
        (800.0,  129.449E-15),
        (900.0,  137.804E-15),
        (1000.0, 145.64E-15),
        (1100.0, 153.059E-15),
        (1200.0, 160.064E-15),
        (1300.0, 166.656E-15),
        (1400.0, 173.038E-15),
        (1500.0, 179.209E-15),
        (1600.0, 185.072E-15),
        (1700.0, 190.727E-15),
        (1800.0, 196.174E-15),
        (2000.0, 206.448E-15),
        (2250.0, 218.509E-15),
        (2500.0, 229.74E-15),
        (2750.0, 240.24E-15),
        (3000.0, 250.13E-15),
        (3250.0, 259.39E-15),
        (3500.0, 268.23E-15),
        (3750.0, 276.66E-15),
        (4000.0, 284.78E-15),
        (4500.0, 299.77E-15),
        (5000.0, 313.72E-15),
        (5500.0, 326.64E-15),
        (6000.0, 338.72E-15),
        (6500.0, 349.97E-15),
        (7000.0, 360.7E-15),
        (8000.0, 380.3E-15),
        (9000.0, 398.12E-15),
        (10000.0,414.38E-15),
        (11000.0,429.29E-15),
        (12000.0,443.15E-15),
        (13000.0,455.98E-15),
        (14000.0,467.97E-15),
        (15000.0,479.33E-15),
        (16000.0,489.96E-15),
        (17000.0,499.96E-15),
        (18000.0,509.54E-15),
        (20000.0,527.15E-15),
        (2.25E+04, 5.47E-13),
        (2.5E+04,  5.65E-13),
        (2.75E+04, 5.81E-13),
        (3.0E+04,  5.96E-13),
        (3.25E+04, 6.09E-13),
        (3.5E+04,  6.21E-13),
        (3.75E+04, 6.33E-13),
        (4.0E+04,  6.43E-13),
        (4.5E+04,  6.63E-13),
        (5.0E+04,  6.8E-13 )

    );
}   
);
photo_reactions=(
{   #data according to Y. M. Chung, E. ‐M Lee, T. Masuoka, and J. A. R. Samson, The Journal of Chemical Physics 99, 885-889 (1993).
    #совпадает с  J. A. R. Samson and G. N. Haddad, J. Opt. Soc. Am. B 11, 277-279 (1994).
    in="H2";
    out=("H2+","e");
    energy=15.4;
    cross_section=(
    (18.10, 9.73E-18),
    (18.15, 9.64E-18),
    (18.2,  9.56E-18),
    (18.3,  9.42E-18),
    (18.4,  9.29E-18),
    (18.5,  9.16E-18),
    (18.6,  9.03E-18),
    (18.8,  8.77E-18),
    (19.0,  8.54E-18),
    (19.5,  7.99E-18),
    (20.0,  7.50E-18),    
    (21.0,  6.77E-18),
    (22.0,  6.03E-18),
    (23.0,  5.40E-18),
    (24.0,  4.83E-18),
    (25.0,  4.31E-18),
    (26.0,  3.85E-18),
    (27.0,  3.50E-18),
    (28.0,  3.20E-18),
    (29.0,  2.95E-18),
    (30.0,  2.71E-18),
    (31.0,  2.41E-18),
    (32.0,  2.13E-18),
    (33.0,  1.93E-18),
    (34.0,  1.74E-18),
    (35.0,  1.57E-18),
    (36.0,  1.42E-18),
    (37.0,  1.29E-18),
    (38.0,  1.17E-18),
    (39.0,  1.08E-18),
    (40.0,  0.990E-18),
    (42.0,  0.840E-18),
    (44.0,  0.722E-18),
    (46.0,  0.626E-18),
    (48.0,  0.543E-18),
    (50.0,  0.477E-18),
    (52.0,  0.420E-18),
    (54.0,  0.373E-18),
    (56.0,  0.331E-18),
    (58.0,  0.294E-18),
    (60.0,  0.262E-18),
    (62.0,  0.236E-18),
    (64.0,  0.212E-18),
    (66.0,  0.191E-18),
    (68.0,  0.173E-18),
    (70.0,  0.157E-18),
    (72.0,  0.143E-18),
    (74.0,  0.130E-18),
    (76.0,  0.118E-18),
    (78.0,  0.108E-18),
    (80.0,  9.717e-20),
    (90.0,  6.705e-20),
    (100.0, 4.811e-20),
    (110.0, 3.564e-20),
    (120.0, 2.709e-20),
    (130.0, 2.105e-20),
    (140.0, 1.667e-20),
    (150.0, 1.341e-20),
    (160.0, 1.095e-20),
    (170.0, 9.044e-21),
    (180.0, 7.554e-21),
    (190.0, 6.371e-21),
    (200.0, 5.420e-21),
    (210.0, 4.648e-21),
    (220.0, 4.015e-21),
    (230.0, 3.490e-21),
    (240.0, 3.052e-21),
    (250.0, 2.684e-21),
    (260.0, 2.372e-21),
    (270.0, 2.106e-21),
    (280.0, 1.878e-21),
    (290.0, 1.682e-21));
},
{   comment="Sn transparency from cxro" ;
    in="Sn";
    out=("Sn+","e");
    energy=15.4;
    cross_section=(
        (10.0,   2.6605362406015E-017),
(14.9,   6.50135639097742E-018),
(19.8,   2.13344887218043E-018),
(24.7,   9.15209774436088E-018),
(29.6,   1.11110751879699E-017),
(34.5,   9.20719398496237E-018),
(39.4,   1.10865879699248E-017),
(44.3,   1.4205647368421E-017),
(49.2,   1.77838421052631E-017),
(54.1,   2.07896481203007E-017),
(59.0,   2.27578082706767E-017),
(63.9,   2.28710616541353E-017),
(68.8,   2.27731127819549E-017),
(73.7,   2.24547789473684E-017),
(78.6,   2.16895533834586E-017),
(83.5,   2.03641827067669E-017),
(88.4,   1.89194368421052E-017),
(93.3,   1.72298187969925E-017),
(98.2,   1.56442714285714E-017),
(103.1,  1.40495413533834E-017),
(108.0,  1.13253383458646E-017),
(112.9,  9.16740225563907E-018),
(117.8,  7.48390601503759E-018),
(122.7,  5.93202857142856E-018),
(127.6,  4.67399774436087E-018),
(132.5,  3.71287443609022E-018),
(137.4,  2.97519699248119E-018),
(142.3,  2.39974736842104E-018),
(147.2,  1.78450601503756E-018),
(152.1,  1.28863984962404E-018),
(157.0,  1.04070676691728E-018),
(161.9,  9.09087969924787E-019),
(166.8,  8.81539849624024E-019),
(171.7,  8.99905263157877E-019),
(176.6,  9.30514285714265E-019),
(181.5,  9.94793233082665E-019),
(186.4,  1.06825488721801E-018),
(191.3,  1.12335112781953E-018),
(196.2,  1.16926466165412E-018),
(201.1,  1.2151781954887E-018),
(206.0,  1.26109172932328E-018),
(210.9,  1.30700526315786E-018),
(215.8,  1.33455338345862E-018),
(220.7,  1.35904060150372E-018),
(225.6,  1.38658872180449E-018),
(230.5,  1.41107593984959E-018),
(235.4,  1.43862406015035E-018),
(240.3,  1.46005037593983E-018),
(245.2,  1.46617218045112E-018),
(250.1,  1.46617218045112E-018),
(255.0,  1.46311127819546E-018),
(259.9,  1.46311127819546E-018),
(264.8,  1.46005037593983E-018),
(269.7,  1.46005037593983E-018),
(274.6,  1.45392857142855E-018),
(279.5,  1.44780676691726E-018),
(284.4,  1.43862406015035E-018),
(289.3,  1.42944135338344E-018),
(294.2,  1.4202586466165E-018),
(299.1,  1.40801503759397E-018),
(304.0,  1.38658872180449E-018),
(308.9,  1.36516240601501E-018),
(313.8,  1.34373609022553E-018),
(318.7,  1.32230977443605E-018),
(323.6,  1.30394436090223E-018),
(328.5,  1.28251804511276E-018),
(333.4,  1.26109172932328E-018),
(338.3,  1.23660451127817E-018),
(343.2,  1.20905639097741E-018),
(348.1,  1.18763007518793E-018),
(353.0,  1.16314285714283E-018),
(357.9,  1.14171654135335E-018),
(362.8,  1.12029022556387E-018),
(367.7,  1.0988639097744E-018),
(372.6,  1.07743759398495E-018),
(377.5,  1.05601127819547E-018),
(382.4,  1.03152406015034E-018),
(387.3,  1.01009774436089E-018),
(392.2,  9.9173233082704E-019),
(397.1,  9.70306015037562E-019),
(402.0,  9.51940601503743E-019),
(406.9,  9.3357518796989E-019),
(411.8,  9.15209774436071E-019),
(416.7,  9.02966165413502E-019),
(421.6,  8.87661654135309E-019),
(426.5,  8.75418045112774E-019),
(431.4,  8.63174436090205E-019),
(436.3,  8.50930827067637E-019),
(441.2,  8.38687218045102E-019),
(446.1,  8.32565413533818E-019),
(451.0,  8.29504511278158E-019),
(455.9,  8.23382706766908E-019),
(460.8,  8.23382706766908E-019),
(465.7,  8.29504511278158E-019),
(470.6,  8.41748120300727E-019),
(475.5,  8.50930827067637E-019),
(480.4,  8.60113533834546E-019),
(485.3,  8.17260902255624E-019),
(490.2,  9.51940601503743E-019),
(495.1,  1.10498571428568E-018),
(500.0,  1.28251804511276E-018));
},
{
    in = "H";
    out= ("H+","e");
    energy = (13.6,"eV");
    cross_section =  (
        (1.36e+01, 6.35e-18),
        (1.40e+01, 5.87e-18),
        (1.50e+01, 4.87e-18),
        (1.60e+01, 4.09e-18),
        (1.80e+01, 2.96e-18),
        (2.00e+01, 2.21e-18),
        (2.50e+01, 1.18e-18),
        (3.00e+01, 7.03e-19),
        (4.00e+01, 3.06e-19),
        (5.00e+01, 1.58e-19),
        (6.00e+01, 9.19e-20),
        (7.00e+01, 5.77e-20),
        (8.00e+01, 3.85e-20),
        (9.00e+01, 2.68e-20),
        (1.00e+02, 1.94e-20),
        (1.20e+02, 1.10e-20),
        (1.40e+02, 6.81e-21),
        (1.60e+02, 4.47e-21),
        (1.80e+02, 3.08e-21),
        (2.00e+02, 2.20e-21),
        (2.40e+02, 1.23e-21),
        (2.80e+02, 7.50e-22),
        (3.00e+02, 6.00e-22)
    );
}        

);
    
