light_dose = (80.39,"mJ");
units=("eV");
euv_dist= (
(1.500000e+00,1.568117e-03),
(3.500000e+00,1.568117e-03),
(3.500000e+00,1.458268e-02),
(6.000000e+00,1.458268e-02),
(6.000000e+00,5.611649e-02),
(8.000000e+00,5.611649e-02),
(8.000000e+00,9.635169e-02),
(1.050000e+01,9.635169e-02),
(1.050000e+01,1.103281e-01),
(1.400000e+01,1.103281e-01),
(1.400000e+01,7.710493e-02),
(1.900000e+01,7.710493e-02),
(1.900000e+01,1.921249e-02),
(2.600000e+01,1.921249e-02),
(2.600000e+01,1.121627e-02),
(3.350000e+01,1.121627e-02),
(3.350000e+01,2.017757e-02),
(4.100000e+01,2.017757e-02),
(4.100000e+01,1.883660e-02),
(4.750000e+01,1.883660e-02),
(4.750000e+01,1.347457e-02),
(5.250000e+01,1.347457e-02),
(5.250000e+01,1.311086e-02),
(5.750000e+01,1.311086e-02),
(5.750000e+01,2.509653e-02),
(6.250000e+01,2.509653e-02),
(6.250000e+01,3.046560e-02),
(6.750000e+01,3.046560e-02),
(6.750000e+01,3.604843e-02),
(7.200000e+01,3.604843e-02),
(7.200000e+01,8.099264e-02),
(7.500000e+01,8.099264e-02),
(7.500000e+01,4.349462e-02),
(7.825000e+01,4.349462e-02),
(7.825000e+01,9.654836e-02),
(8.100000e+01,9.654836e-02),
(8.100000e+01,7.164561e-02),
(8.200000e+01,7.164561e-02),
(8.200000e+01,8.684748e-02),
(8.350000e+01,8.684748e-02),
(8.350000e+01,1.479715e-01),
(8.575000e+01,1.479715e-01),
(8.575000e+01,1.391287e-01),
(8.703900e+01,1.391287e-01),
(8.703900e+01,1.469656e-01),
(8.711700e+01,1.469656e-01),
(8.711700e+01,1.809710e-01),
(8.719500e+01,1.809710e-01),
(8.719500e+01,1.370037e-01),
(8.727300e+01,1.370037e-01),
(8.727300e+01,1.683041e-01),
(8.735100e+01,1.683041e-01),
(8.735100e+01,1.269564e-01),
(8.742900e+01,1.269564e-01),
(8.742900e+01,1.116326e-01),
(8.750700e+01,1.116326e-01),
(8.750700e+01,1.330508e-01),
(8.758500e+01,1.330508e-01),
(8.758500e+01,1.247195e-01),
(8.766300e+01,1.247195e-01),
(8.766300e+01,9.135751e-02),
(8.774100e+01,9.135751e-02),
(8.774100e+01,7.436104e-02),
(8.781900e+01,7.436104e-02),
(8.781900e+01,1.096648e-01),
(8.789700e+01,1.096648e-01),
(8.789700e+01,1.483501e-01),
(8.797500e+01,1.483501e-01),
(8.797500e+01,2.088008e-01),
(8.805300e+01,2.088008e-01),
(8.805300e+01,1.588122e-01),
(8.813100e+01,1.588122e-01),
(8.813100e+01,2.102833e-01),
(8.820900e+01,2.102833e-01),
(8.820900e+01,2.102585e-01),
(8.828700e+01,2.102585e-01),
(8.828700e+01,2.125241e-01),
(8.836500e+01,2.125241e-01),
(8.836500e+01,1.528290e-01),
(8.844300e+01,1.528290e-01),
(8.844300e+01,2.186147e-01),
(8.852100e+01,2.186147e-01),
(8.852100e+01,2.130689e-01),
(8.861932e+01,2.130689e-01),
(8.861932e+01,1.532272e-01),
(8.873797e+01,1.532272e-01),
(8.873797e+01,2.048055e-01),
(8.885662e+01,2.048055e-01),
(8.885662e+01,2.363639e-01),
(8.897526e+01,2.363639e-01),
(8.897526e+01,1.918068e-01),
(8.909390e+01,1.918068e-01),
(8.909390e+01,2.196624e-01),
(8.921255e+01,2.196624e-01),
(8.921255e+01,2.284788e-01),
(8.933120e+01,2.284788e-01),
(8.933120e+01,3.239203e-01),
(8.944984e+01,3.239203e-01),
(8.944984e+01,3.146481e-01),
(8.956848e+01,3.146481e-01),
(8.956848e+01,3.610094e-01),
(8.968712e+01,3.610094e-01),
(8.968712e+01,3.101375e-01),
(8.980577e+01,3.101375e-01),
(8.980577e+01,2.785937e-01),
(8.992442e+01,2.785937e-01),
(8.992442e+01,3.437954e-01),
(9.004306e+01,3.437954e-01),
(9.004306e+01,3.545546e-01),
(9.016170e+01,3.545546e-01),
(9.016170e+01,2.705663e-01),
(9.028036e+01,2.705663e-01),
(9.028036e+01,2.281100e-01),
(9.039900e+01,2.281100e-01),
(9.039900e+01,2.697826e-01),
(9.051764e+01,2.697826e-01),
(9.051764e+01,3.299619e-01),
(9.063629e+01,3.299619e-01),
(9.063629e+01,4.085663e-01),
(9.075494e+01,4.085663e-01),
(9.075494e+01,2.946594e-01),
(9.087358e+01,2.946594e-01),
(9.087358e+01,3.268997e-01),
(9.097883e+01,3.268997e-01),
(9.097883e+01,3.865024e-01),
(9.107068e+01,3.865024e-01),
(9.107068e+01,3.372101e-01),
(9.116254e+01,3.372101e-01),
(9.116254e+01,5.016168e-01),
(9.125440e+01,5.016168e-01),
(9.125440e+01,4.813065e-01),
(9.134624e+01,4.813065e-01),
(9.134624e+01,5.594013e-01),
(9.143810e+01,5.594013e-01),
(9.143810e+01,8.677438e-01),
(9.152996e+01,8.677438e-01),
(9.152996e+01,6.212958e-01),
(9.162181e+01,6.212958e-01),
(9.162181e+01,7.844761e-01),
(9.171366e+01,7.844761e-01),
(9.171366e+01,6.630502e-01),
(9.180552e+01,6.630502e-01),
(9.180552e+01,4.478640e-01),
(9.189738e+01,4.478640e-01),
(9.189738e+01,6.313862e-01),
(9.198924e+01,6.313862e-01),
(9.198924e+01,6.232468e-01),
(9.208109e+01,6.232468e-01),
(9.208109e+01,7.205154e-01),
(9.217294e+01,7.205154e-01),
(9.217294e+01,4.576683e-01),
(9.226480e+01,4.576683e-01),
(9.226480e+01,5.962196e-01),
(9.235666e+01,5.962196e-01),
(9.235666e+01,7.322806e-01),
(9.244851e+01,7.322806e-01),
(9.244851e+01,5.162771e-01),
(9.254037e+01,5.162771e-01),
(9.254037e+01,7.760306e-01),
(9.263222e+01,7.760306e-01),
(9.263222e+01,6.530643e-01),
(9.272407e+01,6.530643e-01),
(9.272407e+01,7.946226e-01),
(9.283525e+01,7.946226e-01),
(9.283525e+01,5.454941e-01),
(9.296575e+01,5.454941e-01),
(9.296575e+01,4.299767e-01),
(9.309625e+01,4.299767e-01),
(9.309625e+01,8.776245e-01),
(9.322675e+01,8.776245e-01),
(9.322675e+01,8.731563e-01),
(9.335725e+01,8.731563e-01),
(9.335725e+01,3.665579e-01),
(9.348775e+01,3.665579e-01),
(9.348775e+01,9.485105e-01),
(9.361825e+01,9.485105e-01),
(9.361825e+01,1.000000e+00),
(9.374875e+01,1.000000e+00),
(9.374875e+01,3.073106e-01),
(9.387925e+01,3.073106e-01),
(9.387925e+01,2.734106e-01),
(9.400975e+01,2.734106e-01),
(9.400975e+01,4.867327e-01),
(9.414025e+01,4.867327e-01),
(9.414025e+01,3.244448e-01),
(9.427075e+01,3.244448e-01),
(9.427075e+01,2.546622e-01),
(9.440125e+01,2.546622e-01),
(9.440125e+01,5.013212e-01),
(9.453175e+01,5.013212e-01),
(9.453175e+01,1.830547e-01),
(9.466225e+01,1.830547e-01),
(9.466225e+01,2.523970e-01),
(9.479275e+01,2.523970e-01),
(9.479275e+01,1.389553e-01),
(9.492325e+01,1.389553e-01),
(9.492325e+01,1.105429e-01),
(9.505375e+01,1.105429e-01),
(9.505375e+01,1.916881e-01),
(9.518425e+01,1.916881e-01),
(9.518425e+01,1.054154e-01),
(9.531475e+01,1.054154e-01),
(9.531475e+01,1.564699e-01),
(9.719000e+01,1.564699e-01),
(9.719000e+01,6.631065e-02),
(1.045000e+02,6.631065e-02),
(1.045000e+02,8.271566e-03),
(1.150000e+02,8.271566e-03),
(1.150000e+02,2.904119e-03),
(1.250000e+02,2.904119e-03),
(1.250000e+02,1.655126e-03),
(1.350000e+02,1.655126e-03),
(1.350000e+02,1.294367e-03),
(1.450000e+02,1.294367e-03),
(1.450000e+02,1.192193e-03),
(1.550000e+02,1.192193e-03),
(1.550000e+02,1.213187e-03),
(1.650000e+02,1.213187e-03),
(1.650000e+02,8.079663e-04),
(1.750000e+02,8.079663e-04),
(1.750000e+02,2.830322e-04),
(1.850000e+02,2.830322e-04),
(1.850000e+02,1.135503e-04),
(1.950000e+02,1.135503e-04),
(1.950000e+02,3.038017e-05),
(2.050000e+02,3.038017e-05),
(2.050000e+02,1.985245e-05),
(2.150000e+02,1.985245e-05),
(2.150000e+02,1.763843e-05),
(2.250000e+02,1.763843e-05),
(2.250000e+02,1.262630e-05),
(2.350000e+02,1.262630e-05),
(2.350000e+02,1.083207e-05),
(2.600000e+02,1.083207e-05),
(2.600000e+02,5.080881e-06),
(3.100000e+02,5.080881e-06),
(3.100000e+02,1.411914e-06),
(3.700000e+02,1.411914e-06),
(3.700000e+02,4.899621e-07),
(4.050000e+02,4.899621e-07),
(4.050000e+02,3.758936e-07),
(4.150000e+02,3.758936e-07),
(4.150000e+02,2.489050e-07),
(4.250000e+02,2.489050e-07),
(4.250000e+02,1.668254e-07),
(4.350000e+02,1.668254e-07),
(4.350000e+02,1.306100e-07),
(4.450000e+02,1.306100e-07),
(4.450000e+02,1.673283e-07),
(4.550000e+02,1.673283e-07),
(4.550000e+02,1.902452e-07),
(4.650000e+02,1.902452e-07),
(4.650000e+02,2.307652e-07),
(4.750000e+02,2.307652e-07),
(4.750000e+02,1.176457e-07),
(4.850000e+02,1.176457e-07),
(4.850000e+02,1.756049e-07),
(4.950000e+02,1.756049e-07),
(4.950000e+02,1.017899e-07),
(5.050000e+02,1.017899e-07),
(5.050000e+02,5.531742e-08),
(5.150000e+02,5.531742e-08),
(5.150000e+02,5.843970e-08),
(5.250000e+02,5.843970e-08),
(5.250000e+02,4.124127e-08),
(5.350000e+02,4.124127e-08),
(5.350000e+02,9.575891e-08),
(5.450000e+02,9.575891e-08),
(5.450000e+02,6.523506e-08),
(5.550000e+02,6.523506e-08),
(5.550000e+02,5.804270e-08),
(5.650000e+02,5.804270e-08),
(5.650000e+02,2.893157e-08),
(5.750000e+02,2.893157e-08),
(5.750000e+02,1.993423e-08),
(5.850000e+02,1.993423e-08),
(5.850000e+02,3.188209e-08),
(5.950000e+02,3.188209e-08));


angular_dist = (
(0.00,1.000),
(0.10,1.000),
(0.20,0.997),
(0.29,0.989),
(0.39,0.977),
(0.49,0.965),
(0.59,0.952),
(0.69,0.937),
(0.79,0.920),
(0.88,0.901),
(0.98,0.880),
(1.08,0.857),
(1.18,0.829),
(1.28,0.799),
(1.37,0.764),
(1.47,0.724),
(1.57,0.688),
(1.67,0.666),
(1.77,0.654),
(1.87,0.641),
(1.96,0.624),
(2.06,0.601),
(2.16,0.572),
(2.26,0.541),
(2.36,0.510),
(2.45,0.479),
(2.55,0.450),
(2.65,0.425),
(2.75,0.403),
(2.85,0.384),
(2.95,0.370),
(3.04,0.363),
(3.14,0.362));